test_run_dir/DUT_should_do_something/FP_add_32_7.vcd
$version Generated by VerilatedVcd $end
$date Thu Jan 16 14:58:26 2025
 $end
$timescale   1ns $end

 $scope module TOP $end
  $var wire  1 _. clock $end
  $var wire 32 !/ io_in_a [31:0] $end
  $var wire 32 )/ io_in_b [31:0] $end
  $var wire  1 o. io_in_en $end
  $var wire  1 w. io_in_valid $end
  $var wire 32 1/ io_out_s [31:0] $end
  $var wire  1 9/ io_out_valid $end
  $var wire  1 g. reset $end
  $scope module FP_add_32_7 $end
   $var wire 32 W& LZC32_2_io_in_d [31:0] $end
   $var wire  6 { LZC32_2_io_out_c [5:0] $end
   $var wire  1 _. clock $end
   $var wire  1 C( diff_sign $end
   $var wire  1 [( diff_sign_2 $end
   $var wire  1 5) diff_sign_4 $end
   $var wire  1 m) diff_sign_5 $end
   $var wire  1 %! eqexp_arrange $end
   $var wire  8 Q' exp_sr_2_0 [7:0] $end
   $var wire  8 Y' exp_sr_2_1 [7:0] $end
   $var wire  1 A' exp_sub_out_c $end
   $var wire  8 I' exp_sub_out_s [7:0] $end
   $var wire  8 K exp_subtractor_io_in_a [7:0] $end
   $var wire  8 S exp_subtractor_io_in_b [7:0] $end
   $var wire  1 c exp_subtractor_io_out_c $end
   $var wire  8 [ exp_subtractor_io_out_s [7:0] $end
   $var wire  8 K exp_wire_0 [7:0] $end
   $var wire  8 S exp_wire_1 [7:0] $end
   $var wire  1 K( frac_adder_out_c $end
   $var wire 24 S( frac_adder_out_s [23:0] $end
   $var wire 23 !' frac_wire_0 [22:0] $end
   $var wire 23 )' frac_wire_1 [22:0] $end
   $var wire 24 G& fracadd_in_a [23:0] $end
   $var wire 24 +( fracadd_in_b [23:0] $end
   $var wire  1 =) fracadd_outc_2 $end
   $var wire 24 -) fracadd_outs_2 [23:0] $end
   $var wire 24 G& full_adder_io_in_a [23:0] $end
   $var wire 24 O& full_adder_io_in_b [23:0] $end
   $var wire  1 s full_adder_io_out_c $end
   $var wire 24 k full_adder_io_out_s [23:0] $end
   $var wire 32 _& in_a [31:0] $end
   $var wire 32 g& in_b [31:0] $end
   $var wire  9 M) inc [8:0] $end
   $var wire  8 ?* innermux_exp_false [7:0] $end
   $var wire  8 7* innermux_exp_true [7:0] $end
   $var wire 23 /* innermux_frac_false [22:0] $end
   $var wire 86 u) innermux_frac_true [85:0] $end
   $var wire 32 !/ io_in_a [31:0] $end
   $var wire 32 )/ io_in_b [31:0] $end
   $var wire  1 o. io_in_en $end
   $var wire  1 w. io_in_valid $end
   $var wire 32 1/ io_out_s [31:0] $end
   $var wire  1 9/ io_out_valid $end
   $var wire  1 !+ io_out_valid_r $end
   $var wire  1 )+ io_out_valid_r_1 $end
   $var wire  1 1+ io_out_valid_r_2 $end
   $var wire  1 9+ io_out_valid_r_3 $end
   $var wire  1 A+ io_out_valid_r_4 $end
   $var wire  1 I+ io_out_valid_r_5 $end
   $var wire  1 Q+ io_out_valid_r_6 $end
   $var wire  6 {( leadzeroindex [5:0] $end
   $var wire  8 o* norm_out_exp [7:0] $end
   $var wire 23 g* norm_out_frac [22:0] $end
   $var wire 86 O* norm_out_frac_r [85:0] $end
   $var wire  1 w* norm_out_sign $end
   $var wire  9 -! red [8:0] $end
   $var wire  1 #( redundant_op $end
   $var wire  1 c( redundant_op_2 $end
   $var wire  8 3( ref_exp [7:0] $end
   $var wire  8 s( ref_exp_2 [7:0] $end
   $var wire  8 %) ref_exp_4 [7:0] $end
   $var wire  1 ;( ref_sign $end
   $var wire  1 k( ref_sign_2 $end
   $var wire  1 g. reset $end
   $var wire 86 U) shifted_left [85:0] $end
   $var wire  1 E) sign_out_2 $end
   $var wire  1 G* sign_out_3 $end
   $var wire  1 q' sign_sr_2_0 $end
   $var wire  1 y' sign_sr_2_1 $end
   $var wire  1 o& sign_wire_0 $end
   $var wire  1 w& sign_wire_1 $end
   $var wire 24 a' whole_frac_sr_2_0 [23:0] $end
   $var wire 24 i' whole_frac_sr_2_1 [23:0] $end
   $var wire 24 1' whole_frac_wire_0 [23:0] $end
   $var wire 24 9' whole_frac_wire_1 [23:0] $end
   $scope module LZC32_2 $end
    $var wire  2 /" LZC_Merge2_1_io_in_h [1:0] $end
    $var wire  2 '" LZC_Merge2_1_io_in_l [1:0] $end
    $var wire  3 O" LZC_Merge2_1_io_out_m [2:0] $end
    $var wire  2 }! LZC_Merge2_2_io_in_h [1:0] $end
    $var wire  2 u! LZC_Merge2_2_io_in_l [1:0] $end
    $var wire  3 W" LZC_Merge2_2_io_out_m [2:0] $end
    $var wire  2 m! LZC_Merge2_3_io_in_h [1:0] $end
    $var wire  2 e! LZC_Merge2_3_io_in_l [1:0] $end
    $var wire  3 _" LZC_Merge2_3_io_out_m [2:0] $end
    $var wire  2 ]! LZC_Merge2_4_io_in_h [1:0] $end
    $var wire  2 U! LZC_Merge2_4_io_in_l [1:0] $end
    $var wire  3 g" LZC_Merge2_4_io_out_m [2:0] $end
    $var wire  2 M! LZC_Merge2_5_io_in_h [1:0] $end
    $var wire  2 E! LZC_Merge2_5_io_in_l [1:0] $end
    $var wire  3 o" LZC_Merge2_5_io_out_m [2:0] $end
    $var wire  2 I/ LZC_Merge2_6_io_in_h [1:0] $end
    $var wire  2 I/ LZC_Merge2_6_io_in_l [1:0] $end
    $var wire  3 # LZC_Merge2_6_io_out_m [2:0] $end
    $var wire  2 I/ LZC_Merge2_7_io_in_h [1:0] $end
    $var wire  2 I/ LZC_Merge2_7_io_in_l [1:0] $end
    $var wire  3 # LZC_Merge2_7_io_out_m [2:0] $end
    $var wire  2 ?" LZC_Merge2_io_in_h [1:0] $end
    $var wire  2 7" LZC_Merge2_io_in_l [1:0] $end
    $var wire  3 G" LZC_Merge2_io_out_m [2:0] $end
    $var wire  3 W" LZC_Merge3_1_io_in_h [2:0] $end
    $var wire  3 _" LZC_Merge3_1_io_in_l [2:0] $end
    $var wire  4 !# LZC_Merge3_1_io_out_m [3:0] $end
    $var wire  3 g" LZC_Merge3_2_io_in_h [2:0] $end
    $var wire  3 o" LZC_Merge3_2_io_in_l [2:0] $end
    $var wire  4 )# LZC_Merge3_2_io_out_m [3:0] $end
    $var wire  3 # LZC_Merge3_3_io_in_h [2:0] $end
    $var wire  3 # LZC_Merge3_3_io_in_l [2:0] $end
    $var wire  4 + LZC_Merge3_3_io_out_m [3:0] $end
    $var wire  3 G" LZC_Merge3_io_in_h [2:0] $end
    $var wire  3 O" LZC_Merge3_io_in_l [2:0] $end
    $var wire  4 w" LZC_Merge3_io_out_m [3:0] $end
    $var wire  4 )# LZC_Merge4_1_io_in_h [3:0] $end
    $var wire  4 + LZC_Merge4_1_io_in_l [3:0] $end
    $var wire  5 9# LZC_Merge4_1_io_out_m [4:0] $end
    $var wire  4 w" LZC_Merge4_io_in_h [3:0] $end
    $var wire  4 !# LZC_Merge4_io_in_l [3:0] $end
    $var wire  5 1# LZC_Merge4_io_out_m [4:0] $end
    $var wire  5 1# LZC_Merge5_io_in_h [4:0] $end
    $var wire  5 9# LZC_Merge5_io_in_l [4:0] $end
    $var wire  6 { LZC_Merge5_io_out_m [5:0] $end
    $var wire  2 +, LZC_enc2_10_io_in_r [1:0] $end
    $var wire  2 u! LZC_enc2_10_io_out_e [1:0] $end
    $var wire  2 3, LZC_enc2_11_io_in_r [1:0] $end
    $var wire  2 }! LZC_enc2_11_io_out_e [1:0] $end
    $var wire  2 ;, LZC_enc2_12_io_in_r [1:0] $end
    $var wire  2 '" LZC_enc2_12_io_out_e [1:0] $end
    $var wire  2 C, LZC_enc2_13_io_in_r [1:0] $end
    $var wire  2 /" LZC_enc2_13_io_out_e [1:0] $end
    $var wire  2 K, LZC_enc2_14_io_in_r [1:0] $end
    $var wire  2 7" LZC_enc2_14_io_out_e [1:0] $end
    $var wire  2 S, LZC_enc2_15_io_in_r [1:0] $end
    $var wire  2 ?" LZC_enc2_15_io_out_e [1:0] $end
    $var wire  2 A/ LZC_enc2_1_io_in_r [1:0] $end
    $var wire  2 I/ LZC_enc2_1_io_out_e [1:0] $end
    $var wire  2 A/ LZC_enc2_2_io_in_r [1:0] $end
    $var wire  2 I/ LZC_enc2_2_io_out_e [1:0] $end
    $var wire  2 A/ LZC_enc2_3_io_in_r [1:0] $end
    $var wire  2 I/ LZC_enc2_3_io_out_e [1:0] $end
    $var wire  2 Y+ LZC_enc2_4_io_in_r [1:0] $end
    $var wire  2 E! LZC_enc2_4_io_out_e [1:0] $end
    $var wire  2 a+ LZC_enc2_5_io_in_r [1:0] $end
    $var wire  2 M! LZC_enc2_5_io_out_e [1:0] $end
    $var wire  2 i+ LZC_enc2_6_io_in_r [1:0] $end
    $var wire  2 U! LZC_enc2_6_io_out_e [1:0] $end
    $var wire  2 q+ LZC_enc2_7_io_in_r [1:0] $end
    $var wire  2 ]! LZC_enc2_7_io_out_e [1:0] $end
    $var wire  2 y+ LZC_enc2_8_io_in_r [1:0] $end
    $var wire  2 e! LZC_enc2_8_io_out_e [1:0] $end
    $var wire  2 #, LZC_enc2_9_io_in_r [1:0] $end
    $var wire  2 m! LZC_enc2_9_io_out_e [1:0] $end
    $var wire  2 A/ LZC_enc2_io_in_r [1:0] $end
    $var wire  2 I/ LZC_enc2_io_out_e [1:0] $end
    $var wire 32 W& io_in_d [31:0] $end
    $var wire  6 { io_out_c [5:0] $end
    $scope module LZC_Merge2 $end
     $var wire  2 ?" io_in_h [1:0] $end
     $var wire  2 7" io_in_l [1:0] $end
     $var wire  3 G" io_out_m [2:0] $end
     $var wire  1 I# result_h_0 $end
     $var wire  1 A# result_h_1 $end
     $var wire  1 Q# result_l $end
    $upscope $end
    $scope module LZC_Merge2_1 $end
     $var wire  2 /" io_in_h [1:0] $end
     $var wire  2 '" io_in_l [1:0] $end
     $var wire  3 O" io_out_m [2:0] $end
     $var wire  1 a# result_h_0 $end
     $var wire  1 Y# result_h_1 $end
     $var wire  1 i# result_l $end
    $upscope $end
    $scope module LZC_Merge2_2 $end
     $var wire  2 }! io_in_h [1:0] $end
     $var wire  2 u! io_in_l [1:0] $end
     $var wire  3 W" io_out_m [2:0] $end
     $var wire  1 y# result_h_0 $end
     $var wire  1 q# result_h_1 $end
     $var wire  1 #$ result_l $end
    $upscope $end
    $scope module LZC_Merge2_3 $end
     $var wire  2 m! io_in_h [1:0] $end
     $var wire  2 e! io_in_l [1:0] $end
     $var wire  3 _" io_out_m [2:0] $end
     $var wire  1 3$ result_h_0 $end
     $var wire  1 +$ result_h_1 $end
     $var wire  1 ;$ result_l $end
    $upscope $end
    $scope module LZC_Merge2_4 $end
     $var wire  2 ]! io_in_h [1:0] $end
     $var wire  2 U! io_in_l [1:0] $end
     $var wire  3 g" io_out_m [2:0] $end
     $var wire  1 K$ result_h_0 $end
     $var wire  1 C$ result_h_1 $end
     $var wire  1 S$ result_l $end
    $upscope $end
    $scope module LZC_Merge2_5 $end
     $var wire  2 M! io_in_h [1:0] $end
     $var wire  2 E! io_in_l [1:0] $end
     $var wire  3 o" io_out_m [2:0] $end
     $var wire  1 c$ result_h_0 $end
     $var wire  1 [$ result_h_1 $end
     $var wire  1 k$ result_l $end
    $upscope $end
    $scope module LZC_Merge2_6 $end
     $var wire  2 I/ io_in_h [1:0] $end
     $var wire  2 I/ io_in_l [1:0] $end
     $var wire  3 # io_out_m [2:0] $end
     $var wire  1 Q/ result_h_0 $end
     $var wire  1 Q/ result_h_1 $end
     $var wire  1 Q/ result_l $end
    $upscope $end
    $scope module LZC_Merge2_7 $end
     $var wire  2 I/ io_in_h [1:0] $end
     $var wire  2 I/ io_in_l [1:0] $end
     $var wire  3 # io_out_m [2:0] $end
     $var wire  1 Q/ result_h_0 $end
     $var wire  1 Q/ result_h_1 $end
     $var wire  1 Q/ result_l $end
    $upscope $end
    $scope module LZC_Merge3 $end
     $var wire  3 G" io_in_h [2:0] $end
     $var wire  3 O" io_in_l [2:0] $end
     $var wire  4 w" io_out_m [3:0] $end
     $var wire  1 {$ result_h_0 $end
     $var wire  1 s$ result_h_1 $end
     $var wire  2 %% result_l [1:0] $end
    $upscope $end
    $scope module LZC_Merge3_1 $end
     $var wire  3 W" io_in_h [2:0] $end
     $var wire  3 _" io_in_l [2:0] $end
     $var wire  4 !# io_out_m [3:0] $end
     $var wire  1 5% result_h_0 $end
     $var wire  1 -% result_h_1 $end
     $var wire  2 =% result_l [1:0] $end
    $upscope $end
    $scope module LZC_Merge3_2 $end
     $var wire  3 g" io_in_h [2:0] $end
     $var wire  3 o" io_in_l [2:0] $end
     $var wire  4 )# io_out_m [3:0] $end
     $var wire  1 M% result_h_0 $end
     $var wire  1 E% result_h_1 $end
     $var wire  2 U% result_l [1:0] $end
    $upscope $end
    $scope module LZC_Merge3_3 $end
     $var wire  3 # io_in_h [2:0] $end
     $var wire  3 # io_in_l [2:0] $end
     $var wire  4 + io_out_m [3:0] $end
     $var wire  1 ; result_h_0 $end
     $var wire  1 3 result_h_1 $end
     $var wire  2 C result_l [1:0] $end
    $upscope $end
    $scope module LZC_Merge4 $end
     $var wire  4 w" io_in_h [3:0] $end
     $var wire  4 !# io_in_l [3:0] $end
     $var wire  5 1# io_out_m [4:0] $end
     $var wire  1 e% result_h_0 $end
     $var wire  1 ]% result_h_1 $end
     $var wire  3 m% result_l [2:0] $end
    $upscope $end
    $scope module LZC_Merge4_1 $end
     $var wire  4 )# io_in_h [3:0] $end
     $var wire  4 + io_in_l [3:0] $end
     $var wire  5 9# io_out_m [4:0] $end
     $var wire  1 }% result_h_0 $end
     $var wire  1 u% result_h_1 $end
     $var wire  3 '& result_l [2:0] $end
    $upscope $end
    $scope module LZC_Merge5 $end
     $var wire  5 1# io_in_h [4:0] $end
     $var wire  5 9# io_in_l [4:0] $end
     $var wire  6 { io_out_m [5:0] $end
     $var wire  1 7& result_h_0 $end
     $var wire  1 /& result_h_1 $end
     $var wire  4 ?& result_l [3:0] $end
    $upscope $end
    $scope module LZC_enc2 $end
     $var wire  2 A/ io_in_r [1:0] $end
     $var wire  2 I/ io_out_e [1:0] $end
     $var wire  1 Q/ seq_0_1 $end
     $var wire  1 Q/ seq_1_1 $end
    $upscope $end
    $scope module LZC_enc2_1 $end
     $var wire  2 A/ io_in_r [1:0] $end
     $var wire  2 I/ io_out_e [1:0] $end
     $var wire  1 Q/ seq_0_1 $end
     $var wire  1 Q/ seq_1_1 $end
    $upscope $end
    $scope module LZC_enc2_10 $end
     $var wire  2 +, io_in_r [1:0] $end
     $var wire  2 u! io_out_e [1:0] $end
     $var wire  1 ]- seq_0_1 $end
     $var wire  1 e- seq_1_1 $end
    $upscope $end
    $scope module LZC_enc2_11 $end
     $var wire  2 3, io_in_r [1:0] $end
     $var wire  2 }! io_out_e [1:0] $end
     $var wire  1 m- seq_0_1 $end
     $var wire  1 u- seq_1_1 $end
    $upscope $end
    $scope module LZC_enc2_12 $end
     $var wire  2 ;, io_in_r [1:0] $end
     $var wire  2 '" io_out_e [1:0] $end
     $var wire  1 }- seq_0_1 $end
     $var wire  1 '. seq_1_1 $end
    $upscope $end
    $scope module LZC_enc2_13 $end
     $var wire  2 C, io_in_r [1:0] $end
     $var wire  2 /" io_out_e [1:0] $end
     $var wire  1 /. seq_0_1 $end
     $var wire  1 7. seq_1_1 $end
    $upscope $end
    $scope module LZC_enc2_14 $end
     $var wire  2 K, io_in_r [1:0] $end
     $var wire  2 7" io_out_e [1:0] $end
     $var wire  1 ?. seq_0_1 $end
     $var wire  1 G. seq_1_1 $end
    $upscope $end
    $scope module LZC_enc2_15 $end
     $var wire  2 S, io_in_r [1:0] $end
     $var wire  2 ?" io_out_e [1:0] $end
     $var wire  1 O. seq_0_1 $end
     $var wire  1 W. seq_1_1 $end
    $upscope $end
    $scope module LZC_enc2_2 $end
     $var wire  2 A/ io_in_r [1:0] $end
     $var wire  2 I/ io_out_e [1:0] $end
     $var wire  1 Q/ seq_0_1 $end
     $var wire  1 Q/ seq_1_1 $end
    $upscope $end
    $scope module LZC_enc2_3 $end
     $var wire  2 A/ io_in_r [1:0] $end
     $var wire  2 I/ io_out_e [1:0] $end
     $var wire  1 Q/ seq_0_1 $end
     $var wire  1 Q/ seq_1_1 $end
    $upscope $end
    $scope module LZC_enc2_4 $end
     $var wire  2 Y+ io_in_r [1:0] $end
     $var wire  2 E! io_out_e [1:0] $end
     $var wire  1 [, seq_0_1 $end
     $var wire  1 c, seq_1_1 $end
    $upscope $end
    $scope module LZC_enc2_5 $end
     $var wire  2 a+ io_in_r [1:0] $end
     $var wire  2 M! io_out_e [1:0] $end
     $var wire  1 k, seq_0_1 $end
     $var wire  1 s, seq_1_1 $end
    $upscope $end
    $scope module LZC_enc2_6 $end
     $var wire  2 i+ io_in_r [1:0] $end
     $var wire  2 U! io_out_e [1:0] $end
     $var wire  1 {, seq_0_1 $end
     $var wire  1 %- seq_1_1 $end
    $upscope $end
    $scope module LZC_enc2_7 $end
     $var wire  2 q+ io_in_r [1:0] $end
     $var wire  2 ]! io_out_e [1:0] $end
     $var wire  1 -- seq_0_1 $end
     $var wire  1 5- seq_1_1 $end
    $upscope $end
    $scope module LZC_enc2_8 $end
     $var wire  2 y+ io_in_r [1:0] $end
     $var wire  2 e! io_out_e [1:0] $end
     $var wire  1 =- seq_0_1 $end
     $var wire  1 E- seq_1_1 $end
    $upscope $end
    $scope module LZC_enc2_9 $end
     $var wire  2 #, io_in_r [1:0] $end
     $var wire  2 m! io_out_e [1:0] $end
     $var wire  1 M- seq_0_1 $end
     $var wire  1 U- seq_1_1 $end
    $upscope $end
   $upscope $end
   $scope module exp_subtractor $end
    $var wire  8 K io_in_a [7:0] $end
    $var wire  8 S io_in_b [7:0] $end
    $var wire  1 c io_out_c $end
    $var wire  8 [ io_out_s [7:0] $end
    $var wire  9 5! result [8:0] $end
   $upscope $end
   $scope module full_adder $end
    $var wire 24 G& io_in_a [23:0] $end
    $var wire 24 O& io_in_b [23:0] $end
    $var wire  1 s io_out_c $end
    $var wire 24 k io_out_s [23:0] $end
    $var wire 25 =! result [24:0] $end
   $upscope $end
  $upscope $end
 $upscope $end
$enddefinitions $end


#0
b000 #
b0000 +
03
0;
b00 C
b00000001 K
b00000001 S
b00000000 [
0c
b000000000000000000000000 k
0s
b011000 {
0%!
b000000000 -!
b000000000 5!
b0000000000000000000000000 =!
b10 E!
b10 M!
b10 U!
b10 ]!
b10 e!
b10 m!
b10 u!
b10 }!
b10 '"
b10 /"
b10 7"
b10 ?"
b100 G"
b100 O"
b100 W"
b100 _"
b100 g"
b100 o"
b1000 w"
b1000 !#
b1000 )#
b10000 1#
b01000 9#
1A#
0I#
0Q#
1Y#
0a#
0i#
1q#
0y#
0#$
1+$
03$
0;$
1C$
0K$
0S$
1[$
0c$
0k$
1s$
0{$
b00 %%
1-%
05%
b00 =%
1E%
0M%
b00 U%
1]%
0e%
b000 m%
0u%
1}%
b000 '&
0/&
17&
b1000 ?&
b000000000000000000000000 G&
b000000000000000000000000 O&
b00000000000000000000000011111111 W&
b00000000000000000000000000000000 _&
b00000000000000000000000000000000 g&
0o&
0w&
b00000000000000000000000 !'
b00000000000000000000000 )'
b100000000000000000000000 1'
b100000000000000000000000 9'
0A'
b00000000 I'
b00000000 Q'
b00000000 Y'
b000000000000000000000000 a'
b000000000000000000000000 i'
0q'
0y'
0#(
b000000000000000000000000 +(
b00000000 3(
0;(
0C(
0K(
b000000000000000000000000 S(
0[(
0c(
0k(
b00000000 s(
b000000 {(
b00000000 %)
b000000000000000000000000 -)
05)
0=)
0E)
b000000001 M)
b00000000000000000000000000000000000000000000000000000000000000000000000000000000000000 U)
0m)
b00000000000000000000000000000000000000000000000000000000000000000000000000000000000000 u)
b00000000000000000000000 /*
b00000000 7*
b00000000 ?*
0G*
b00000000000000000000000000000000000000000000000000000000000000000000000000000000000000 O*
b00000000000000000000000 g*
b00000000 o*
0w*
0!+
0)+
01+
09+
0A+
0I+
0Q+
b00 Y+
b00 a+
b00 i+
b00 q+
b00 y+
b00 #,
b00 +,
b00 3,
b00 ;,
b00 C,
b00 K,
b00 S,
1[,
0c,
1k,
0s,
1{,
0%-
1--
05-
1=-
0E-
1M-
0U-
1]-
0e-
1m-
0u-
1}-
0'.
1/.
07.
1?.
0G.
1O.
0W.
0_.
1g.
0o.
0w.
b00000000000000000000000000000000 !/
b00000000000000000000000000000000 )/
b00000000000000000000000000000000 1/
09/
b11 A/
b00 I/
0Q/
#1
1_.
#2
0_.
0g.
1o.
1w.
b01000001010000110011001100110011 !/
b01000010001001100110011001100110 )/
#3
b10000010 K
b10000100 S
b11111110 [
1c
b111101000 -!
b111111110 5!
b01000001010000110011001100110011 _&
b01000010001001100110011001100110 g&
b10000110011001100110011 !'
b01001100110011001100110 )'
b110000110011001100110011 1'
b101001100110011001100110 9'
b00000001 Q'
b00000001 Y'
b100000000000000000000000 a'
b100000000000000000000000 i'
b011000 {(
b00000001 7*
1!+
1_.
#4
0_.
#5
1s
b1000000000000000000000000 =!
b100000000000000000000000 G&
b100000000000000000000000 O&
1A'
b11111110 I'
b10000010 Q'
b10000100 Y'
b110000110011001100110011 a'
b101001100110011001100110 i'
b100000000000000000000000 +(
b00000001 3(
1)+
1_.
#6
0_.
#7
b110101110011001100110010 k
0s
b0110101110011001100110010 =!
b101001100110011001100110 G&
b001100001100110011001100 O&
b001100001100110011001100 +(
b10000100 3(
1K(
b00000001 s(
11+
1_.
#8
0_.
#9
b000000 {
b111101001 -!
b00 E!
b00 U!
b00 e!
b00 u!
b00 '"
b01 /"
b01 7"
b00 ?"
b000 G"
b001 O"
b010 W"
b010 _"
b010 g"
b010 o"
b0000 w"
b0010 !#
b0010 )#
b00000 1#
b00010 9#
0A#
0Y#
1i#
0q#
1y#
0+$
13$
0C$
1K$
0[$
1c$
0s$
0-%
b10 =%
0E%
b10 U%
0]%
0}%
b010 '&
07&
b0000 ?&
b11010111001100110011001011111111 W&
0K(
b110101110011001100110010 S(
b10000100 s(
b00000001 %)
1=)
b000000010 M)
19+
b10 Y+
b11 i+
b11 y+
b11 +,
b11 ;,
b01 C,
b01 K,
b11 S,
0[,
0{,
0=-
0]-
0}-
0/.
17.
0?.
1G.
0O.
1_.
#10
0_.
#11
b010000100 -!
b000000 {(
b10000100 %)
b110101110011001100110010 -)
0=)
b010000101 M)
b00000000000000000000000000000000000000000000000000000000000000010101110011001100110010 U)
b00000010 ?*
1A+
1_.
#12
0_.
#13
b00000000000000000000000000000000000000000000000000000000000000010101110011001100110010 u)
b10101110011001100110010 /*
b10000100 7*
b10000100 ?*
b00000010 o*
1I+
1_.
b00000001000000000000000000000000 1/
#14
0_.
#15
b00000000000000000000000000000000000000000000000000000000000000010101110011001100110010 O*
b10101110011001100110010 g*
b10000100 o*
1Q+
1_.
b01000010010101110011001100110010 1/
19/
